…
Which words are most used in each of the specialties? You can use
group_by() and top_n() from dplyr
to have the calculations be done within each specialty. Remember to
remove stopwords. How about the 5 most used words?

mt_samples |>
  unnest_tokens(word, transcription) |>
  filter(!word %in% stopwords2) |>
  group_by(medical_specialty) |>
  count(word, sort = TRUE) |>
  top_n(1)

## Selecting by n

## # A tibble: 32 × 3
## # Groups:   medical_specialty [30]
##    medical_specialty             word        n
##    <chr>                         <chr>   <int>
##  1 Surgery                       patient  4855
##  2 Orthopedic                    patient  1711
##  3 General Medicine              patient  1356
##  4 Gastroenterology              patient   835
##  5 Urology                       patient   776
##  6 Neurology                     patient   648
##  7 Radiology                     normal    644
##  8 Obstetrics / Gynecology       patient   628
##  9 SOAP / Chart / Progress Notes patient   537
## 10 Psychiatry / Psychology       patient   532
## # ℹ 22 more rows

Amongst the top 10, 9 of the categories have “patient” as the most
frequent word, with the exception being radiology, where “normal” is the
most frequent.

mt_samples |>
  unnest_tokens(word, transcription) |>
  filter(!word %in% stopwords2) |>
  group_by(medical_specialty) |>
  count(word, sort = TRUE) |>
  top_n(5)

## Selecting by n

## # A tibble: 177 × 3
## # Groups:   medical_specialty [30]
##    medical_specialty word           n
##    <chr>             <chr>      <int>
##  1 Surgery           patient     4855
##  2 Surgery           procedure   3243
##  3 Surgery           placed      3025
##  4 Orthopedic        patient     1711
##  5 Surgery           anesthesia  1687
##  6 Surgery           well        1645
##  7 General Medicine  patient     1356
##  8 General Medicine  history     1027
##  9 Orthopedic        placed       924
## 10 Gastroenterology  patient      835
## # ℹ 167 more rows
…
